Modeling and prediction for movies
…
library(ggplot2)
library(dplyr)
library(statsr)

Load data

Make sure your data and R Markdown files are in the same directory. When loaded your data file will be called movies. Delete this note when before you submit your work.

#load("movies.Rdata")

load("movies.gz")
movies

## # A tibble: 651 x 32
##    title title_type genre runtime mpaa_rating studio thtr_rel_year
##    <chr> <fct>      <fct>   <dbl> <fct>       <fct>          <dbl>
##  1 Fill~ Feature F~ Drama      80 R           Indom~          2013
##  2 The ~ Feature F~ Drama     101 PG-13       Warne~          2001
##  3 Wait~ Feature F~ Come~      84 R           Sony ~          1996
##  4 The ~ Feature F~ Drama     139 PG          Colum~          1993
##  5 Male~ Feature F~ Horr~      90 R           Ancho~          2004
##  6 Old ~ Documenta~ Docu~      78 Unrated     Shcal~          2009
##  7 Lady~ Feature F~ Drama     142 PG-13       Param~          1986
##  8 Mad ~ Feature F~ Drama      93 R           MGM/U~          1996
##  9 Beau~ Documenta~ Docu~      88 Unrated     Indep~          2012
## 10 The ~ Feature F~ Drama     119 Unrated     IFC F~          2012
## # ... with 641 more rows, and 25 more variables: thtr_rel_month <dbl>,
## #   thtr_rel_day <dbl>, dvd_rel_year <dbl>, dvd_rel_month <dbl>,
## #   dvd_rel_day <dbl>, imdb_rating <dbl>, imdb_num_votes <int>,
## #   critics_rating <fct>, critics_score <dbl>, audience_rating <fct>,
## #   audience_score <dbl>, best_pic_nom <fct>, best_pic_win <fct>,
## #   best_actor_win <fct>, best_actress_win <fct>, best_dir_win <fct>,
## #   top200_box <fct>, director <chr>, actor1 <chr>, actor2 <chr>,
## #   actor3 <chr>, actor4 <chr>, actor5 <chr>, imdb_url <chr>, rt_url <chr>
…
